{
    "version": "https://jsonfeed.org/version/1",
    "title": "pingrid",
    "description": "",
    "home_page_url": "https://papaping.gitlab.io/pingrid",
    "feed_url": "https://papaping.gitlab.io/pingrid/feed.json",
    "user_comment": "",
    "icon": "https://papaping.gitlab.io/pingrid/media/website/pingrid.png",
    "author": {
        "name": "papaping"
    },
    "items": [
        {
            "id": "https://papaping.gitlab.io/pingrid/das-team/",
            "url": "https://papaping.gitlab.io/pingrid/das-team/",
            "title": "Das Team",
            "summary": "<p>Im heutigen Post wollen wir das <strong>Team Pingrid</strong> vorstellen. Dies ist allerdings nur die reine Auflistung aller Kollegen. Ein Kurzportrait zu jedem Einzelnen bekommt ihr wenn ihr den Links folgt.</p>\n",
            "author": {
                "name": "papaping"
            },
            "tags": [
                   "team"
            ],
            "date_published": "2022-10-01T00:00:00+02:00",
            "date_modified": "2022-10-10T01:16:52+02:00"
        },
        {
            "id": "https://papaping.gitlab.io/pingrid/dario/",
            "url": "https://papaping.gitlab.io/pingrid/dario/",
            "title": "Dario",
            "summary": "<p>Hier gibt es alles Wissenswerte über <strong>Super Dario</strong></p>\n",
            "image": "https://papaping.gitlab.io/pingrid/media/posts/6/tux",
            "author": {
                "name": "papaping"
            },
            "tags": [
                   "team"
            ],
            "date_published": "2022-10-01T00:00:00+02:00",
            "date_modified": "2022-10-10T01:17:27+02:00"
        },
        {
            "id": "https://papaping.gitlab.io/pingrid/kai/",
            "url": "https://papaping.gitlab.io/pingrid/kai/",
            "title": "Kai",
            "author": {
                "name": "papaping"
            },
            "tags": [
                   "team"
            ],
            "date_published": "2022-10-01T00:00:00+02:00",
            "date_modified": "2022-10-10T01:17:45+02:00"
        },
        {
            "id": "https://papaping.gitlab.io/pingrid/stefan/",
            "url": "https://papaping.gitlab.io/pingrid/stefan/",
            "title": "Stefan",
            "summary": "<p>Hier gibt es alles Wissenswerte über <strong>Tripple S</strong> aka SQL SAP Stefan</p>\n",
            "author": {
                "name": "papaping"
            },
            "tags": [
                   "team"
            ],
            "date_published": "2022-10-01T00:00:00+02:00",
            "date_modified": "2022-10-10T01:18:11+02:00"
        },
        {
            "id": "https://papaping.gitlab.io/pingrid/sebastian/",
            "url": "https://papaping.gitlab.io/pingrid/sebastian/",
            "title": "Sebastian",
            "author": {
                "name": "papaping"
            },
            "tags": [
                   "team"
            ],
            "date_published": "2022-10-01T00:00:00+02:00",
            "date_modified": "2022-10-10T01:18:31+02:00"
        },
        {
            "id": "https://papaping.gitlab.io/pingrid/erik/",
            "url": "https://papaping.gitlab.io/pingrid/erik/",
            "title": "Erik",
            "author": {
                "name": "papaping"
            },
            "tags": [
                   "team"
            ],
            "date_published": "2022-10-01T00:00:00+02:00",
            "date_modified": "2022-10-10T01:18:49+02:00"
        },
        {
            "id": "https://papaping.gitlab.io/pingrid/christian/",
            "url": "https://papaping.gitlab.io/pingrid/christian/",
            "title": "Christian",
            "author": {
                "name": "papaping"
            },
            "tags": [
                   "team"
            ],
            "date_published": "2022-10-01T00:00:00+02:00",
            "date_modified": "2022-10-10T01:19:06+02:00"
        },
        {
            "id": "https://papaping.gitlab.io/pingrid/charlotte/",
            "url": "https://papaping.gitlab.io/pingrid/charlotte/",
            "title": "Charlotte",
            "author": {
                "name": "papaping"
            },
            "tags": [
                   "team"
            ],
            "date_published": "2022-10-01T00:00:00+02:00",
            "date_modified": "2022-10-10T01:19:28+02:00"
        },
        {
            "id": "https://papaping.gitlab.io/pingrid/thomas/",
            "url": "https://papaping.gitlab.io/pingrid/thomas/",
            "title": "Thomas",
            "summary": "<p>Bitte gehen sie weiter...hier gibts nix zu sehen...</p>\n",
            "author": {
                "name": "papaping"
            },
            "tags": [
                   "team"
            ],
            "date_published": "2022-10-01T00:00:00+02:00",
            "date_modified": "2022-10-10T01:20:39+02:00"
        },
        {
            "id": "https://papaping.gitlab.io/pingrid/namensgebung/",
            "url": "https://papaping.gitlab.io/pingrid/namensgebung/",
            "title": "Namensgebung",
            "summary": "<p>Now this is the story all about ... Pingrid ... and how she became the princess of IT ;)</p>\n",
            "author": {
                "name": "papaping"
            },
            "tags": [
                   "fun facts"
            ],
            "date_published": "2022-09-09T00:18:30+02:00",
            "date_modified": "2022-09-15T22:48:48+02:00"
        }
    ]
}
